{
    "app-id" : "org.tabos.saldo",
    "runtime" : "org.gnome.Platform",
    "runtime-version" : "master",
    "sdk" : "org.gnome.Sdk",
    "command" : "org.tabos.saldo",
    "desktop-file-name-suffix" : " ☢️",
    "finish-args" : [
        "--device=dri",
        "--share=network",
        "--share=ipc",
        "--socket=fallback-x11",
        "--socket=wayland",
        "--talk-name=org.gnome.ScreenSaver"
    ],
    "build-options" : {
        "build-args" : [
            "--share=network"
        ],
        "env" : {        }
    },
    "cleanup" : [
        "/include",
        "/lib/pkgconfig",
        "/man",
        "/share/doc",
        "/share/gtk-doc",
        "/share/man",
        "/share/pkgconfig",
        "*.la",
        "*.a"
    ],
    "modules" : [
        {
            "name" : "requests",
            "buildsystem" : "simple",
            "build-options" : {
                "build-args" : [
                    "--share=network"
                ]
            },
            "build-commands" : [
                "pip3 install --prefix=/app --no-cache-dir fints cryptography schwifty"
            ]
        },
        {
            "name" : "saldo",
            "builddir" : true,
            "buildsystem" : "meson",
            "sources" : [
                {
                    "type" : "git",
                    "url" : "https://gitlab.com/tabos/saldo.git"
                }
            ]
        }
    ]
}
